{
    "tasks": [
        {
            "id": 1,
            "title": "Read Book",
            "description": "Read material ui book",
            "status": 0
          },
          {
            "id": 2,
            "title": "Play games",
            "description": "Read material ui book",
            "status": 1
          },
          {
            "id": 3,
            "title": "Learning",
            "description": "Read material ui book",
            "status": 2
          }
    ]
}